<svg width="50" height="43" viewBox="0 0 50 43" fill="none" xmlns="http://www.w3.org/2000/svg">
<path d="M0.5 1H48.4994V27.7786C48.4994 31.1272 45.7849 33.8417 42.4363 33.8417H1.00526V5.04206" stroke="#7759C2" stroke-width="1.01051" stroke-miterlimit="10"/>
<path d="M18.6895 33.8418V42.4312" stroke="#7759C2" stroke-width="1.01051" stroke-miterlimit="10"/>
<path d="M30.8154 33.8418V42.4312" stroke="#7759C2" stroke-width="1.01051" stroke-miterlimit="10"/>
<path d="M13.1318 42.4312H36.3737" stroke="#7759C2" stroke-width="1.01051" stroke-miterlimit="10"/>
<path d="M33.3415 9.08423H16.668V25.7577H33.3415V9.08423Z" stroke="#7759C2" stroke-width="1.01051" stroke-miterlimit="10"/>
<path d="M19.7803 17.9361L22.7259 20.8818L29.9208 13.6819" stroke="#7759C2" stroke-width="1.01051" stroke-miterlimit="10"/>
</svg>
