<svg width="49" height="48" viewBox="0 0 49 48" fill="none" xmlns="http://www.w3.org/2000/svg">
<g clip-path="url(#clip0_124_527)">
<path d="M41.0452 23.3137H36.1982" stroke="#7759C2" stroke-width="1.27982" stroke-linecap="round" stroke-linejoin="round"/>
<path d="M7.96387 23.3137H12.8108" stroke="#7759C2" stroke-width="1.27982" stroke-linecap="round" stroke-linejoin="round"/>
<path d="M24.4961 6.77759V11.6246" stroke="#7759C2" stroke-width="1.27982" stroke-linecap="round" stroke-linejoin="round"/>
<path d="M11.4619 12L14.8875 15.4304" stroke="#7759C2" stroke-width="1.27982" stroke-linecap="round" stroke-linejoin="round"/>
<path d="M37.5428 12L34.1172 15.4304" stroke="#7759C2" stroke-width="1.27982" stroke-linecap="round" stroke-linejoin="round"/>
<path d="M11.8291 34.3376L15.2547 30.9072" stroke="#7759C2" stroke-width="1.27982" stroke-linecap="round" stroke-linejoin="round"/>
<path d="M21.9647 23.4914C21.7293 23.8939 21.5868 24.3439 21.5474 24.8085C21.5079 25.2731 21.5727 25.7406 21.7368 26.177C21.901 26.6134 22.1605 27.0077 22.4963 27.3311C22.8322 27.6546 23.236 27.899 23.6783 28.0466L39.9263 33.9986L26.7791 22.7474C26.4329 22.4345 26.0213 22.2028 25.5743 22.069C25.1272 21.9353 24.656 21.9028 24.1949 21.9741C23.7337 22.0453 23.2943 22.2185 22.9085 22.481C22.5227 22.7435 22.2003 23.0886 21.9647 23.4914V23.4914Z" stroke="#7759C2" stroke-width="1.27982" stroke-linecap="round" stroke-linejoin="round"/>
<path d="M24.4961 0.959983C30.169 0.95208 35.6455 3.03738 39.8764 6.81645C44.1074 10.5955 46.7954 15.8027 47.4256 21.4405C48.0558 27.0783 46.5838 32.7505 43.2917 37.3705C39.9996 41.9905 35.1188 45.2335 29.5841 46.4784" stroke="#7759C2" stroke-width="1.27982" stroke-linecap="round" stroke-linejoin="round"/>
<path d="M24.4995 47.0401C18.7122 47.0471 13.1342 44.8759 8.87456 40.9581C4.61495 37.0403 1.98576 31.6629 1.50975 25.8952C1.03374 20.1274 2.74579 14.3918 6.30547 9.82869C9.86515 5.26557 15.0117 2.20922 20.7219 1.26733" stroke="#7759C2" stroke-width="1.27982" stroke-linecap="round" stroke-linejoin="round"/>
</g>
<defs>
<clipPath id="clip0_124_527">
<rect width="48" height="48" fill="white" transform="translate(0.5)"/>
</clipPath>
</defs>
</svg>
