<svg width="130" height="50" viewBox="0 0 130 50" fill="none" xmlns="http://www.w3.org/2000/svg">
<g clip-path="url(#clip0_83_4105)">
<path d="M117.946 40.747C116.009 40.6037 113.92 40.1171 112.262 39.4227C111.887 39.2657 111.622 37.8379 111.433 37.7661L111.045 35.8543C110.995 34.1511 110.931 32.2691 110.903 31.6727L110.852 30.588H112.241L112.417 31.9222C113.077 36.9063 115.71 39.4148 120.28 39.4148C123.315 39.4148 125.197 38.2764 126.145 35.8664C126.441 35.1147 126.486 34.727 126.492 32.905C126.499 30.8314 126.494 30.7979 126.01 29.8086C125.162 28.0726 124.304 27.4968 120.029 25.7948C118.761 25.2899 117.255 24.6407 116.682 24.352C112.949 22.4708 111.1 19.8017 111.107 16.3066C111.117 11.835 113.606 8.60761 117.947 7.43934C119.457 7.0329 123.139 7.07721 124.714 7.52121C126.191 7.93727 128.145 8.71066 128.352 8.96204C128.44 9.06918 128.541 10.3347 128.587 11.9025C128.631 13.4162 128.691 15.0083 128.721 15.4402L128.776 16.2257H127.369L127.06 14.6502C126.34 10.9819 124.652 9.04848 121.744 8.56379C119.39 8.17131 116.537 9.08002 115.414 10.5796C114.56 11.7197 114.303 12.6128 114.303 14.4304C114.303 15.8756 114.338 16.0713 114.744 16.8779C115.272 17.9256 116.022 18.6108 117.426 19.3281C118.41 19.8306 121.731 21.1629 122.001 21.1629C122.262 21.1629 125.246 22.6504 126.017 23.1652C128.162 24.5974 129.357 26.5193 129.783 29.2225C129.991 30.5439 130 30.9846 129.847 32.2089C129.5 34.983 128.691 36.7019 126.984 38.2932C124.797 40.3331 122.132 41.0564 117.946 40.7468V40.747ZM65.1636 40.5447C60.4287 39.6377 58.1899 37.1456 57.5667 32.0881C57.4704 31.307 57.4105 26.6115 57.4105 19.8576V8.89486H53.8409V7.54865H65.591V8.88619L63.6946 8.92809L61.7982 8.96998L61.7549 18.6944C61.6981 31.3479 61.8411 33.3856 62.9434 35.6379C64.0307 37.8596 66.1318 38.9662 69.2627 38.9662C72.8134 38.9662 74.7927 37.6385 75.8603 34.5406C76.5434 32.5593 76.5959 31.5123 76.5968 19.854L76.5976 8.8951H73.028V7.54865H81.6547V8.8951H78.3945L78.348 20.8263C78.302 32.6317 78.2979 32.7702 77.9705 33.9543C77.0025 37.4529 75.0888 39.4131 71.7639 40.3117C70.2108 40.7314 66.7711 40.8529 65.1639 40.5452L65.1636 40.5447ZM83.6165 39.684L83.6625 39.0408L85.4474 39.017L87.2323 38.9934L87.2701 23.9487L87.3082 8.90425L85.4855 8.86211L83.6628 8.82022L83.617 8.18432L83.5713 7.54865H90.8765C95.4964 7.54865 98.575 7.60957 99.2516 7.71479C101.834 8.11642 103.598 9.25723 104.547 11.1389C105.365 12.7618 105.617 14.7942 105.235 16.6928C104.826 18.7291 103.982 19.9843 102.289 21.0731C101.144 21.8086 100.407 22.1132 98.9827 22.4393C98.3282 22.5888 97.7373 22.7585 97.6699 22.8161C97.6025 22.8739 98.0039 22.9673 98.5623 23.0239C104.308 23.6078 106.824 26.1396 106.824 31.3361C106.824 34.1971 106.149 36.0253 104.475 37.6975C103.448 38.7225 102.202 39.4035 100.446 39.8985C99.3243 40.2151 98.9831 40.2293 91.4253 40.2775L83.5705 40.3273L83.6165 39.684ZM97.1689 38.7427C99.7079 38.0777 101.406 36.3178 101.97 33.7673C102.325 32.1632 102.204 29.2228 101.731 27.97C101.157 26.4466 100.188 25.227 99.0072 24.5405C97.8269 23.8543 96.9712 23.706 94.1959 23.706H91.6201V38.966H93.9687C95.5706 38.966 96.5879 38.8952 97.1689 38.7427ZM97.1607 22.0049C99.6203 21.206 101.055 18.7495 101.03 15.3796C101.004 11.8646 99.2275 9.33549 96.5043 8.93627C96.0675 8.87247 94.79 8.84068 93.6653 8.86572L91.6201 8.91123V15.5353C91.6201 19.1788 91.6702 22.2122 91.7316 22.2762C91.9254 22.4785 96.3899 22.2551 97.1607 22.0046V22.0049Z" fill="white"/>
<path d="M22.7918 49.6243C22.3235 49.4883 22.3083 49.4589 22.3083 48.6773C22.3083 47.8863 22.2989 47.8688 21.8251 47.7763C20.9407 47.6039 19.4168 46.904 18.705 46.3429C16.0829 44.277 15.1846 41.0462 16.3651 37.9301C17.12 35.9374 19.2027 34.1558 21.4552 33.576C22.5435 33.296 22.492 32.9825 21.3416 32.8862L20.4492 32.8113V31.3153L21.3786 31.2708L22.3083 31.2263V27.4183C22.3083 25.324 22.277 23.6104 22.2392 23.6104C22.2009 23.6104 21.0794 24.5025 19.7464 25.5927C18.4134 26.683 17.1395 27.7193 16.9153 27.8958C16.6911 28.0723 16.5086 28.2743 16.5098 28.3446C16.511 28.4151 16.7388 28.7419 17.0162 29.071C17.5055 29.652 17.5134 29.6817 17.2818 30.0768C17.1508 30.3007 16.859 30.5487 16.6338 30.6274C16.2582 30.7591 16.1747 30.7127 15.6331 30.0708C15.2074 29.5661 14.9965 29.4153 14.8783 29.5314C14.7594 29.6487 14.8451 29.9735 15.1904 30.7158C15.6031 31.6026 15.6753 31.9421 15.734 33.2705C15.7897 34.5315 15.7468 34.9829 15.4916 35.8264C14.7895 38.1451 13.1088 39.8354 10.8031 40.5416C9.96518 40.7982 9.52816 40.8404 8.34882 40.7787C6.70766 40.6928 5.76091 40.3738 4.42434 39.4564C3.95482 39.134 3.51997 38.8732 3.45761 38.8766C3.39525 38.8799 3.11691 39.0784 2.8388 39.3174C2.36013 39.7292 2.31029 39.7407 1.9118 39.5334C1.50199 39.3203 1.03897 38.6353 1.03897 38.2421C1.03897 38.135 1.28625 37.8388 1.58843 37.5836L2.13813 37.1194L1.74181 36.2001C3.69549e-06 32.1602 1.77407 27.7487 5.73515 26.2693C6.45268 26.0013 6.90679 25.9433 8.17835 25.9573C10.0165 25.9772 10.9182 26.2592 12.4527 27.2943C13.6669 28.113 13.9674 27.9764 13.1524 26.976C12.6008 26.2984 12.5921 26.2696 12.8244 25.8804C12.9559 25.6604 13.2439 25.4143 13.4644 25.3332C13.8314 25.1983 13.9183 25.2465 14.4803 25.8932L15.0945 26.6004L18.2926 23.9915C20.0512 22.5567 21.4901 21.3126 21.4901 21.2266C21.4901 21.1409 20.0847 19.93 18.367 18.5359L15.2433 16.0012L14.8342 16.3927C14.3089 16.896 14.318 17.1909 14.8716 17.6024C15.4162 18.0076 15.4198 18.0796 14.925 18.671L14.5325 19.1405L14.0628 18.6826C13.5013 18.135 13.4401 18.1276 13.0708 18.5612C12.4681 19.2691 12.4635 19.3637 13.0149 19.7413C13.2988 19.9356 13.5314 20.1699 13.5319 20.2614C13.5331 20.4571 12.9629 21.2173 12.8155 21.2163C12.6805 21.2153 9.90065 18.9806 9.84503 18.8277C9.82095 18.7618 10.5067 18.319 11.3694 17.8437C12.2321 17.3686 12.9379 16.928 12.9379 16.8644C12.9379 16.8009 12.7445 16.6104 12.5081 16.4411L12.0783 16.1332L10.6288 16.959C9.83131 17.4132 9.15447 17.7601 9.12438 17.73C9.09452 17.6999 9.29701 16.9564 9.57415 16.0776L10.0783 14.4795L9.69815 14.1788C9.48916 14.0133 9.2544 13.8995 9.17662 13.9255C9.09861 13.9515 8.8063 14.7075 8.527 15.6054C8.24769 16.5035 7.99247 17.2646 7.95996 17.2973C7.89977 17.3575 4.90614 14.9401 4.90614 14.8313C4.90614 14.6882 5.56949 13.886 5.68772 13.886C5.75971 13.886 6.0537 14.0666 6.34095 14.2869L6.86345 14.6878L7.29781 14.2202C7.53667 13.963 7.73218 13.7056 7.73218 13.6481C7.73218 13.5905 7.48418 13.3281 7.18128 13.0647L6.63037 12.5855L6.9954 12.122C7.44277 11.5538 7.50344 11.5477 8.05675 12.0161C8.29994 12.2217 8.54939 12.39 8.61151 12.39C8.75502 12.39 9.51925 11.5326 9.51035 11.3814C9.50649 11.3188 8.94066 10.8302 8.25275 10.2954C6.86056 9.21314 6.751 8.95671 7.36668 8.2204C8.13958 7.29653 7.40568 6.81665 16.2101 14.0003C20.9698 17.8836 22.1405 18.8232 22.2207 18.8232C22.2688 18.8232 22.3083 17.1064 22.3083 15.008V11.1931H20.821V12.689H19.4823V11.1931H17.995V12.689H16.6562V8.65405L17.3629 8.93456C17.7515 9.08866 18.4994 9.3906 19.0245 9.60561C19.5497 9.82063 20.0353 9.99616 20.103 9.99616C20.1707 9.99616 20.2258 9.74382 20.2251 9.43514L20.2241 8.87412L18.5683 8.21655L16.9122 7.55874L18.5692 6.89178L20.226 6.22481V5.64212C20.226 5.3214 20.194 5.05919 20.1548 5.05919C20.1155 5.05919 19.3958 5.33585 18.556 5.67391L16.8423 6.36326C16.6991 6.42057 16.6565 5.97055 16.6565 4.40186V2.3663H17.9952V3.86227H19.4823V2.3663H20.821V3.86227H22.3083V0.432837L22.8814 0.277775C23.2859 0.16822 23.5926 0.170868 23.9227 0.286443L24.3908 0.450655V9.65281C24.3908 17.4348 24.4226 18.8427 24.5969 18.7755C24.7797 18.7049 28.8419 15.4279 35.8467 9.69976C37.1165 8.66151 38.2383 7.76051 38.3395 7.69743C38.6226 7.52166 39.0784 7.72752 39.3897 8.17249C40.0081 9.05567 39.977 9.13705 38.6009 10.2377C37.9024 10.7963 37.3308 11.3099 37.3308 11.379C37.3308 11.5706 37.9641 12.39 38.1124 12.39C38.1844 12.39 38.4803 12.208 38.7702 11.9855L39.2973 11.5812L39.7186 12.0977L40.1405 12.6144L39.5544 13.1379L38.9684 13.6616L39.4333 14.172C39.7516 14.5216 39.9558 14.6396 40.081 14.5462C41.0872 13.795 41.0391 13.8072 41.4222 14.1987C41.616 14.3971 41.7954 14.637 41.8209 14.7316C41.8717 14.9208 38.9773 17.3513 38.8189 17.2526C38.7647 17.2189 38.4977 16.4476 38.2253 15.5387C37.953 14.6297 37.6571 13.8881 37.5678 13.891C37.4784 13.8937 37.2499 14.0259 37.0604 14.185L36.7154 14.4742L37.2287 16.125C37.5112 17.0327 37.7098 17.7758 37.6703 17.7758C37.6308 17.7758 36.9302 17.3985 36.1132 16.9374L34.6281 16.0987L34.1956 16.5153L33.7632 16.9321L34.6919 17.4483C35.2023 17.7324 35.9442 18.148 36.3403 18.3722L37.06 18.7798L35.5076 20.0548L33.9551 21.3297L33.539 20.8053L33.123 20.2806L33.6912 19.8007L34.2594 19.3209L33.8441 18.7729C33.6153 18.4714 33.3958 18.2246 33.3558 18.2246C33.3161 18.2246 33.0302 18.4261 32.7211 18.6724L32.1589 19.1203L31.7558 18.5887L31.3525 18.057L31.9145 17.5682L32.4765 17.0797L32.0438 16.5346C31.6739 16.0682 31.5743 16.0157 31.3551 16.1719C30.7245 16.6215 25.1502 21.1501 25.143 21.2187C25.1382 21.2611 25.5193 21.5977 25.9896 21.9668C26.4601 22.3359 27.9349 23.5299 29.2669 24.6202C30.5989 25.7105 31.7161 26.6026 31.7491 26.6026C31.782 26.6026 32.0255 26.2996 32.2899 25.9293C32.8583 25.1328 33.1697 25.0871 33.7882 25.7093L34.2387 26.1624L33.8477 26.6444C33.3399 27.2695 33.0909 27.7737 33.2236 27.9071C33.2816 27.9654 33.4145 27.9483 33.519 27.8691C34.5079 27.1171 35.7063 26.4285 36.3391 26.2486C40.0114 25.2051 43.3501 26.605 44.9542 29.8605L45.5857 31.1432V33.0244C45.5857 34.968 45.5744 35.0173 44.6811 37.0062C44.6426 37.0917 44.8812 37.3609 45.2113 37.6045C45.7095 37.9724 45.7964 38.1111 45.7247 38.4215C45.6312 38.8248 45.1528 39.4085 44.7259 39.6399C44.5191 39.7521 44.3286 39.6697 43.8572 39.2635L43.2533 38.7434L42.575 39.2642C41.1852 40.3314 39.749 40.8177 38.006 40.8117C35.9439 40.8045 34.4496 40.1936 33.0916 38.8034C32.037 37.723 31.4724 36.7312 31.1644 35.4166C30.7705 33.7359 30.9181 32.2489 31.6424 30.5981C31.9246 29.9549 31.9795 29.6879 31.855 29.5627C31.7305 29.4375 31.6142 29.4873 31.4033 29.7561C30.4931 30.9161 30.5936 30.8538 30.0754 30.5843C29.8168 30.4497 29.5317 30.2013 29.4417 30.032C29.2712 29.7117 29.308 29.6275 30.0369 28.6781L30.3383 28.2851L27.5159 25.9862C25.9636 24.7216 24.6241 23.6638 24.5396 23.6354C24.4354 23.6005 24.3985 24.8099 24.4252 27.3747L24.465 31.1656L25.3539 31.2113C26.3166 31.2612 26.4685 31.3775 26.4685 32.0632C26.4685 32.7492 26.3166 32.8652 25.3539 32.9151C24.0862 32.9806 24.178 33.2852 25.5887 33.6943C27.4636 34.2384 28.799 35.2227 29.8613 36.8444C31.1447 38.8031 31.2844 41.6167 30.2088 43.8439C29.4763 45.3608 27.5212 47.015 25.9046 47.4857C24.3518 47.9376 24.3908 47.9058 24.3908 48.7267C24.3908 49.4184 24.3622 49.4731 23.9223 49.6274C23.393 49.8128 23.4419 49.8131 22.7918 49.6243ZM22.3362 45.3083C22.3786 44.6977 22.4244 44.6279 22.8659 44.5012C23.1628 44.4162 23.536 44.4162 23.8329 44.5012C24.2793 44.6293 24.3219 44.697 24.3908 45.3832C24.4594 46.0699 24.4934 46.1233 24.837 46.0872C25.561 46.0111 27.023 45.1585 27.7263 44.4025C28.8178 43.2284 29.2105 42.2225 29.2139 40.5909C29.2156 39.8503 29.1291 38.9902 29.022 38.6796C28.2929 36.5656 25.7009 35.9699 24.5796 37.6582C23.9114 38.6642 24.2808 40.2192 25.3154 40.7573C25.771 40.9942 26.8708 40.9909 27.4027 40.7511C27.6332 40.647 27.6628 40.7279 27.6628 41.458C27.6628 42.2477 27.6435 42.2889 27.1945 42.4464C26.1259 42.821 24.5165 42.4584 23.8818 41.6995C23.6815 41.4602 23.4891 41.2642 23.4544 41.2642C23.4195 41.2642 23.1571 41.4862 22.8708 41.7578C22.0418 42.5441 20.8145 42.7999 19.6111 42.4372L19.0361 42.2639V41.4488C19.0361 40.7241 19.065 40.6478 19.2964 40.7607C19.4396 40.8305 19.9706 40.8883 20.4767 40.8888C21.2944 40.89 21.448 40.8406 21.8559 40.4474C22.7694 39.5669 22.7684 38.0765 21.8544 37.2176C20.4772 35.9234 18.2162 36.9939 17.6933 39.1879C17.1546 41.4455 18.0554 43.9089 19.881 45.1725C20.6204 45.6842 22.0288 46.2377 22.1874 46.0788C22.2435 46.0227 22.3105 45.676 22.3362 45.3083ZM10.4947 38.8792C12.0838 38.3175 13.4977 36.9715 13.8391 35.6956C14.117 34.6581 13.9003 33.8146 13.1664 33.0767C12.5993 32.506 12.4561 32.4374 11.8346 32.4374C10.6389 32.4374 9.74631 33.1682 9.56428 34.2962C9.43956 35.0701 9.97529 36.078 10.7041 36.4408L11.281 36.7281L10.6695 37.2007C10.3331 37.4608 9.96807 37.6736 9.85851 37.6736C9.74872 37.6736 9.36299 37.3991 9.00085 37.0633C8.18581 36.3074 7.80562 35.3867 7.93035 34.4703L8.0204 33.8106L7.28505 33.7089C6.15748 33.5529 5.0458 32.6211 4.60902 31.4658C4.4672 31.0907 4.50356 31.0088 5.01425 30.5547C5.32293 30.2805 5.615 30.0532 5.6634 30.0498C5.71179 30.0464 5.82905 30.3036 5.92344 30.6217C6.15555 31.3999 7.08954 32.0632 7.95322 32.0632C9.12534 32.0632 10.1121 31.0654 10.1121 29.8801C10.1121 28.581 9.01458 27.6487 7.48875 27.6514C4.73399 27.656 2.34737 30.8851 2.83712 33.9447C3.00446 34.9897 3.33144 35.8781 3.54862 35.8781C3.62808 35.8781 3.89631 35.7067 4.14407 35.4967C4.57772 35.1298 4.61215 35.1243 5.0535 35.354C5.30584 35.4852 5.6256 35.8314 5.76404 36.1235L6.0159 36.6547L5.4609 37.1661C5.15583 37.4473 4.90614 37.7033 4.90614 37.7348C4.90614 37.9026 6.52852 38.8031 7.1194 38.9633C8.16222 39.2459 9.55561 39.2113 10.4947 38.879V38.8792ZM40.4092 38.6563C40.9163 38.4263 41.4518 38.1039 41.5991 37.9397C41.8599 37.6496 41.8541 37.6303 41.3839 37.2352C40.8238 36.7645 40.7759 36.377 41.2096 35.8228C41.7814 35.0915 42.0496 35.0472 42.7038 35.576L43.288 36.0481L43.6188 35.3275C43.8909 34.7347 43.9496 34.341 43.9496 33.1106C43.9496 31.7719 43.9053 31.5239 43.5297 30.7543C42.8989 29.4618 41.7968 28.3273 40.8128 27.9569C39.0584 27.2967 37.5586 27.7104 36.9054 29.0349C36.4426 29.974 36.5546 30.6094 37.3188 31.3777C38.2939 32.3589 39.5503 32.3281 40.4468 31.3009C40.6965 31.0151 40.9006 30.6152 40.9006 30.4124C40.9006 29.9342 41.014 29.9472 41.6846 30.5032C42.3184 31.0286 42.3482 31.1882 41.9562 31.957C41.4573 32.9356 40.4155 33.6336 39.3926 33.6748L38.794 33.6988L38.8887 34.3326C39.0317 35.2928 38.7124 36.142 37.8998 36.9629C37.5129 37.3539 37.0888 37.6736 36.9574 37.6736C36.8259 37.6736 36.4534 37.4593 36.1293 37.1974L35.5404 36.7214L35.9521 36.5432C36.6754 36.2306 37.0693 35.6619 37.1502 34.8122C37.2441 33.8276 36.896 33.1241 36.1168 32.7242C34.9664 32.1338 33.8783 32.4511 33.2284 33.5666C32.3344 35.1011 33.1899 37.1849 35.2004 38.3702C36.2545 38.9914 36.9966 39.1713 38.2976 39.1207C39.2125 39.0851 39.7006 38.9777 40.4092 38.6563Z" fill="white"/>
</g>
<defs>
<clipPath id="clip0_83_4105">
<rect width="130" height="49.972" fill="white" transform="translate(0 0.00463867)"/>
</clipPath>
</defs>
</svg>
