<svg width="28" height="27" viewBox="0 0 28 27" fill="none" xmlns="http://www.w3.org/2000/svg">
<path d="M13.895 1.61536L17.6193 9.85085L26.6611 10.8203L19.9133 16.8769L21.7851 25.7075L13.895 21.2155L6.00498 25.7075L7.87671 16.8769L1.12891 10.8203L10.1708 9.85085L13.895 1.61536Z" fill="#7759C2" stroke="#7759C2" stroke-width="1.28" stroke-linecap="round" stroke-linejoin="round"/>
</svg>
