<svg width="1040" height="916" viewBox="0 0 1040 916" fill="none" xmlns="http://www.w3.org/2000/svg" xmlns:xlink="http://www.w3.org/1999/xlink">
<path d="M810.628 181.946L135.05 889.304" stroke="#CEB3EF" stroke-width="14.2955" stroke-miterlimit="10" stroke-linecap="round"/>
<path d="M849.784 25.782L25.0601 889.304" stroke="#5829CB" stroke-width="14.2955" stroke-miterlimit="10" stroke-linecap="round"/>
<g style="mix-blend-mode:overlay">
<path d="M957 28.6841L809.756 182.861" stroke="#A989F5" stroke-width="14.2955" stroke-miterlimit="10" stroke-linecap="round"/>
</g>
<path d="M957 28.6841L865.273 124.729" stroke="#CEB3EF" stroke-width="14.2955" stroke-miterlimit="10" stroke-linecap="round"/>
<path d="M67.7179 844.637L25.0601 889.304" stroke="#CEB3EF" stroke-width="14.2955" stroke-miterlimit="10" stroke-linecap="round"/>
<path opacity="0.4" d="M737.264 143.591L25.0601 889.303" stroke="#CEB3EF" stroke-width="14.2955" stroke-miterlimit="10" stroke-linecap="round"/>
<g style="mix-blend-mode:screen" opacity="0.4">
<path d="M407.737 546.211L295.253 663.985" stroke="#CEB3EF" stroke-width="14.2955" stroke-miterlimit="10" stroke-linecap="round"/>
</g>
<path d="M696.542 358.982L190.052 889.304" stroke="#A989F5" stroke-width="14.2955" stroke-miterlimit="10" stroke-linecap="round"/>
<path d="M574.216 314.23L67.7178 844.551" stroke="#A989F5" stroke-width="14.2955" stroke-miterlimit="10" stroke-linecap="round"/>
<g style="mix-blend-mode:overlay">
<path d="M982.725 59.3408L696.542 358.982" stroke="#A989F5" stroke-width="14.2955" stroke-miterlimit="10" stroke-linecap="round"/>
</g>
<path d="M476.227 589.662L190.052 889.304" stroke="#CEB3EF" stroke-width="14.2955" stroke-miterlimit="10" stroke-linecap="round"/>
<path d="M1014.78 25.782L728.593 325.424" stroke="#CEB3EF" stroke-width="14.2955" stroke-miterlimit="10" stroke-linecap="round"/>
<path d="M565.445 438.666L135.05 889.304" stroke="#A989F5" stroke-width="14.2955" stroke-miterlimit="10" stroke-linecap="round"/>
<g style="mix-blend-mode:lighten">
<path d="M902.005 28.6841L80.0552 889.304" stroke="#A989F5" stroke-width="14.2955" stroke-miterlimit="10" stroke-linecap="round"/>
</g>
<path opacity="0.31" d="M750.977 250.606C756.584 248.36 760.351 244.597 759.391 242.2C758.431 239.803 753.107 239.681 747.501 241.927C741.894 244.173 738.127 247.937 739.087 250.333C740.047 252.73 745.37 252.852 750.977 250.606Z" fill="#CEB3EF"/>
<path opacity="0.31" d="M559.77 444.605C555.024 444.605 553.716 441.946 556.854 438.658C559.992 435.37 566.382 432.711 571.128 432.711C575.874 432.711 577.182 435.37 574.044 438.658C570.906 441.939 564.516 444.605 559.77 444.605Z" fill="#CEB3EF"/>
<path d="M293.001 810.299L255.146 849.934" stroke="#5829CB" stroke-width="3.57388" stroke-miterlimit="10" stroke-linecap="round"/>
<path d="M232.853 810.299L205.898 838.519" stroke="#5829CB" stroke-width="3.57388" stroke-miterlimit="10" stroke-linecap="round"/>
<path d="M243.539 787.412L235.054 796.297" stroke="#5829CB" stroke-width="3.57388" stroke-miterlimit="10" stroke-linecap="round"/>
<path d="M246.698 769.214L238.213 778.091" stroke="#5829CB" stroke-width="3.57388" stroke-miterlimit="10" stroke-linecap="round"/>
<path d="M178.051 781.101L169.566 789.985" stroke="#5829CB" stroke-width="3.57388" stroke-miterlimit="10" stroke-linecap="round"/>
<path d="M159.803 787.412L151.318 796.297" stroke="#5829CB" stroke-width="3.57388" stroke-miterlimit="10" stroke-linecap="round"/>
<path d="M276.954 701.539L268.477 710.416" stroke="#5829CB" stroke-width="3.57388" stroke-miterlimit="10" stroke-linecap="round"/>
<path d="M261.458 805.546L234.503 833.758" stroke="#5829CB" stroke-width="3.57388" stroke-miterlimit="10" stroke-linecap="round"/>
<path d="M116.716 796.533L89.7686 824.752" stroke="#5829CB" stroke-width="3.57388" stroke-miterlimit="10" stroke-linecap="round"/>
<path d="M202.589 805.546L167.186 842.614" stroke="#5829CB" stroke-width="3.57388" stroke-miterlimit="10" stroke-linecap="round"/>
<path d="M127.688 810.643L97.1523 842.615" stroke="#5829CB" stroke-width="3.57388" stroke-miterlimit="10" stroke-linecap="round"/>
<path d="M60.899 816.589L30.3638 848.561" stroke="#5829CB" stroke-width="3.57388" stroke-miterlimit="10" stroke-linecap="round"/>
<path opacity="0.79" d="M67.7181 851.699C71.6657 851.699 74.8658 848.499 74.8658 844.552C74.8658 840.604 71.6657 837.404 67.7181 837.404C63.7705 837.404 60.5703 840.604 60.5703 844.552C60.5703 848.499 63.7705 851.699 67.7181 851.699Z" fill="#CEB3EF"/>
<g style="mix-blend-mode:color-burn">
<rect x="843.437" width="31.4502" height="31.4502" fill="url(#pattern0)"/>
<rect x="19.2988" y="20.7285" width="836.289" height="874.172" fill="url(#pattern1)"/>
<rect y="883.464" width="30.7354" height="32.1649" fill="url(#pattern2)"/>
</g>
<g style="mix-blend-mode:color-burn">
<rect x="898.474" width="31.4502" height="31.4502" fill="url(#pattern3)"/>
<rect x="74.3364" y="20.7285" width="836.289" height="874.172" fill="url(#pattern4)"/>
<rect x="55.0376" y="883.464" width="30.7354" height="32.1649" fill="url(#pattern5)"/>
</g>
<g style="mix-blend-mode:color-burn">
<rect x="953.512" width="31.4502" height="31.4502" fill="url(#pattern6)"/>
<rect x="129.375" y="20.7285" width="835.574" height="874.172" fill="url(#pattern7)"/>
<rect x="110.076" y="883.464" width="30.7354" height="32.1649" fill="url(#pattern8)"/>
</g>
<g style="mix-blend-mode:color-burn">
<rect x="1008.55" width="31.4502" height="31.4502" fill="url(#pattern9)"/>
<rect x="184.412" y="20.7285" width="835.574" height="874.172" fill="url(#pattern10)"/>
<rect x="165.113" y="883.464" width="30.7354" height="32.1649" fill="url(#pattern11)"/>
</g>
<path d="M293.001 810.299L255.146 849.934" stroke="url(#paint0_linear_377_3152)" stroke-width="3.57388" stroke-miterlimit="10" stroke-linecap="round"/>
<path d="M232.853 810.299L205.898 838.519" stroke="url(#paint1_linear_377_3152)" stroke-width="3.57388" stroke-miterlimit="10" stroke-linecap="round"/>
<path d="M243.539 787.412L235.054 796.297" stroke="url(#paint2_linear_377_3152)" stroke-width="3.57388" stroke-miterlimit="10" stroke-linecap="round"/>
<path d="M246.698 769.214L238.214 778.092" stroke="url(#paint3_linear_377_3152)" stroke-width="3.57388" stroke-miterlimit="10" stroke-linecap="round"/>
<path d="M178.051 781.101L169.566 789.985" stroke="url(#paint4_linear_377_3152)" stroke-width="3.57388" stroke-miterlimit="10" stroke-linecap="round"/>
<path d="M159.802 787.412L151.318 796.297" stroke="url(#paint5_linear_377_3152)" stroke-width="3.57388" stroke-miterlimit="10" stroke-linecap="round"/>
<path d="M276.954 701.539L268.477 710.416" stroke="url(#paint6_linear_377_3152)" stroke-width="3.57388" stroke-miterlimit="10" stroke-linecap="round"/>
<path d="M261.458 805.546L234.504 833.758" stroke="url(#paint7_linear_377_3152)" stroke-width="3.57388" stroke-miterlimit="10" stroke-linecap="round"/>
<path d="M116.716 796.533L89.7686 824.752" stroke="url(#paint8_linear_377_3152)" stroke-width="3.57388" stroke-miterlimit="10" stroke-linecap="round"/>
<path d="M202.589 805.546L167.187 842.614" stroke="url(#paint9_linear_377_3152)" stroke-width="3.57388" stroke-miterlimit="10" stroke-linecap="round"/>
<path d="M127.688 810.643L97.1523 842.615" stroke="url(#paint10_linear_377_3152)" stroke-width="3.57388" stroke-miterlimit="10" stroke-linecap="round"/>
<path d="M60.899 816.589L30.3638 848.561" stroke="url(#paint11_linear_377_3152)" stroke-width="3.57388" stroke-miterlimit="10" stroke-linecap="round"/>
<defs>
<pattern id="pattern0" patternContentUnits="objectBoundingBox" width="1" height="1">
<use xlink:href="#image0_377_3152" transform="scale(0.0227273)"/>
</pattern>
<pattern id="pattern1" patternContentUnits="objectBoundingBox" width="1" height="1">
<use xlink:href="#image1_377_3152" transform="scale(0.000854701 0.000817661)"/>
</pattern>
<pattern id="pattern2" patternContentUnits="objectBoundingBox" width="1" height="1">
<use xlink:href="#image2_377_3152" transform="scale(0.0232558 0.0222222)"/>
</pattern>
<pattern id="pattern3" patternContentUnits="objectBoundingBox" width="1" height="1">
<use xlink:href="#image3_377_3152" transform="scale(0.0227273)"/>
</pattern>
<pattern id="pattern4" patternContentUnits="objectBoundingBox" width="1" height="1">
<use xlink:href="#image4_377_3152" transform="scale(0.000854701 0.000817661)"/>
</pattern>
<pattern id="pattern5" patternContentUnits="objectBoundingBox" width="1" height="1">
<use xlink:href="#image5_377_3152" transform="scale(0.0232558 0.0222222)"/>
</pattern>
<pattern id="pattern6" patternContentUnits="objectBoundingBox" width="1" height="1">
<use xlink:href="#image6_377_3152" transform="scale(0.0227273)"/>
</pattern>
<pattern id="pattern7" patternContentUnits="objectBoundingBox" width="1" height="1">
<use xlink:href="#image7_377_3152" transform="scale(0.000855432 0.000817661)"/>
</pattern>
<pattern id="pattern8" patternContentUnits="objectBoundingBox" width="1" height="1">
<use xlink:href="#image8_377_3152" transform="scale(0.0232558 0.0222222)"/>
</pattern>
<pattern id="pattern9" patternContentUnits="objectBoundingBox" width="1" height="1">
<use xlink:href="#image9_377_3152" transform="scale(0.0227273)"/>
</pattern>
<pattern id="pattern10" patternContentUnits="objectBoundingBox" width="1" height="1">
<use xlink:href="#image10_377_3152" transform="scale(0.000855432 0.000817661)"/>
</pattern>
<pattern id="pattern11" patternContentUnits="objectBoundingBox" width="1" height="1">
<use xlink:href="#image11_377_3152" transform="scale(0.0232558 0.0222222)"/>
</pattern>
<linearGradient id="paint0_linear_377_3152" x1="724.979" y1="357.46" x2="684.299" y2="400.06" gradientUnits="userSpaceOnUse">
<stop stop-color="#CEB3EF" stop-opacity="0.7"/>
<stop offset="0.26" stop-color="#AA8DDC" stop-opacity="0.53"/>
<stop offset="0.5" stop-color="#8E71CE" stop-opacity="0.41"/>
<stop offset="0.69" stop-color="#7D5FC5" stop-opacity="0.33"/>
<stop offset="0.82" stop-color="#7759C2" stop-opacity="0.3"/>
<stop offset="1" stop-color="#5829CB" stop-opacity="0.4"/>
</linearGradient>
<linearGradient id="paint1_linear_377_3152" x1="1418.23" y1="-431.518" x2="663.717" y2="358.583" gradientUnits="userSpaceOnUse">
<stop stop-color="#CEB3EF" stop-opacity="0.7"/>
<stop offset="0.26" stop-color="#AA8DDC" stop-opacity="0.53"/>
<stop offset="0.5" stop-color="#8E71CE" stop-opacity="0.41"/>
<stop offset="0.69" stop-color="#7D5FC5" stop-opacity="0.33"/>
<stop offset="0.82" stop-color="#7759C2" stop-opacity="0.3"/>
<stop offset="1" stop-color="#5829CB" stop-opacity="0.4"/>
</linearGradient>
<linearGradient id="paint2_linear_377_3152" x1="709.509" y1="298.924" x2="698.189" y2="310.778" gradientUnits="userSpaceOnUse">
<stop stop-color="#CEB3EF" stop-opacity="0.7"/>
<stop offset="0.26" stop-color="#AA8DDC" stop-opacity="0.53"/>
<stop offset="0.5" stop-color="#8E71CE" stop-opacity="0.41"/>
<stop offset="0.69" stop-color="#7D5FC5" stop-opacity="0.33"/>
<stop offset="0.82" stop-color="#7759C2" stop-opacity="0.3"/>
<stop offset="1" stop-color="#5829CB" stop-opacity="0.4"/>
</linearGradient>
<linearGradient id="paint3_linear_377_3152" x1="719.438" y1="273.621" x2="708.124" y2="285.469" gradientUnits="userSpaceOnUse">
<stop stop-color="#CEB3EF" stop-opacity="0.7"/>
<stop offset="0.26" stop-color="#AA8DDC" stop-opacity="0.53"/>
<stop offset="0.5" stop-color="#8E71CE" stop-opacity="0.41"/>
<stop offset="0.69" stop-color="#7D5FC5" stop-opacity="0.33"/>
<stop offset="0.82" stop-color="#7759C2" stop-opacity="0.3"/>
<stop offset="1" stop-color="#5829CB" stop-opacity="0.4"/>
</linearGradient>
<linearGradient id="paint4_linear_377_3152" x1="678.105" y1="256.881" x2="666.79" y2="268.729" gradientUnits="userSpaceOnUse">
<stop stop-color="#CEB3EF" stop-opacity="0.7"/>
<stop offset="0.26" stop-color="#AA8DDC" stop-opacity="0.53"/>
<stop offset="0.5" stop-color="#8E71CE" stop-opacity="0.41"/>
<stop offset="0.69" stop-color="#7D5FC5" stop-opacity="0.33"/>
<stop offset="0.82" stop-color="#7759C2" stop-opacity="0.3"/>
<stop offset="1" stop-color="#5829CB" stop-opacity="0.4"/>
</linearGradient>
<linearGradient id="paint5_linear_377_3152" x1="665.681" y1="257.072" x2="654.361" y2="268.926" gradientUnits="userSpaceOnUse">
<stop stop-color="#CEB3EF" stop-opacity="0.7"/>
<stop offset="0.26" stop-color="#AA8DDC" stop-opacity="0.53"/>
<stop offset="0.5" stop-color="#8E71CE" stop-opacity="0.41"/>
<stop offset="0.69" stop-color="#7D5FC5" stop-opacity="0.33"/>
<stop offset="0.82" stop-color="#7759C2" stop-opacity="0.3"/>
<stop offset="1" stop-color="#5829CB" stop-opacity="0.4"/>
</linearGradient>
<linearGradient id="paint6_linear_377_3152" x1="766.069" y1="188.768" x2="754.75" y2="200.622" gradientUnits="userSpaceOnUse">
<stop stop-color="#CEB3EF" stop-opacity="0.7"/>
<stop offset="0.26" stop-color="#AA8DDC" stop-opacity="0.53"/>
<stop offset="0.5" stop-color="#8E71CE" stop-opacity="0.41"/>
<stop offset="0.69" stop-color="#7D5FC5" stop-opacity="0.33"/>
<stop offset="0.82" stop-color="#7759C2" stop-opacity="0.3"/>
<stop offset="1" stop-color="#5829CB" stop-opacity="0.4"/>
</linearGradient>
<linearGradient id="paint7_linear_377_3152" x1="710.632" y1="334.667" x2="680.851" y2="365.853" gradientUnits="userSpaceOnUse">
<stop stop-color="#CEB3EF" stop-opacity="0.7"/>
<stop offset="0.26" stop-color="#AA8DDC" stop-opacity="0.53"/>
<stop offset="0.5" stop-color="#8E71CE" stop-opacity="0.41"/>
<stop offset="0.69" stop-color="#7D5FC5" stop-opacity="0.33"/>
<stop offset="0.82" stop-color="#7759C2" stop-opacity="0.3"/>
<stop offset="1" stop-color="#5829CB" stop-opacity="0.4"/>
</linearGradient>
<linearGradient id="paint8_linear_377_3152" x1="638.989" y1="249.019" x2="609.208" y2="280.205" gradientUnits="userSpaceOnUse">
<stop stop-color="#D1D3D4" stop-opacity="0.3"/>
<stop offset="0.05" stop-color="#C8C9CB" stop-opacity="0.3"/>
<stop offset="0.51" stop-color="#858688" stop-opacity="0.3"/>
<stop offset="0.82" stop-color="#6D6E71" stop-opacity="0.3"/>
<stop offset="1" stop-color="white" stop-opacity="0.2"/>
</linearGradient>
<linearGradient id="paint9_linear_377_3152" x1="679.826" y1="305.247" x2="641.592" y2="345.285" gradientUnits="userSpaceOnUse">
<stop stop-color="#CEB3EF" stop-opacity="0.7"/>
<stop offset="0.26" stop-color="#AA8DDC" stop-opacity="0.53"/>
<stop offset="0.5" stop-color="#8E71CE" stop-opacity="0.41"/>
<stop offset="0.69" stop-color="#7D5FC5" stop-opacity="0.33"/>
<stop offset="0.82" stop-color="#7759C2" stop-opacity="0.3"/>
<stop offset="1" stop-color="#5829CB" stop-opacity="0.4"/>
</linearGradient>
<linearGradient id="paint10_linear_377_3152" x1="638.308" y1="275.341" x2="604.939" y2="310.284" gradientUnits="userSpaceOnUse">
<stop stop-color="#CEB3EF" stop-opacity="0.7"/>
<stop offset="0.26" stop-color="#AA8DDC" stop-opacity="0.53"/>
<stop offset="0.5" stop-color="#8E71CE" stop-opacity="0.41"/>
<stop offset="0.69" stop-color="#7D5FC5" stop-opacity="0.33"/>
<stop offset="0.82" stop-color="#7759C2" stop-opacity="0.3"/>
<stop offset="1" stop-color="#5829CB" stop-opacity="0.4"/>
</linearGradient>
<linearGradient id="paint11_linear_377_3152" x1="600.65" y1="250.744" x2="567.281" y2="285.687" gradientUnits="userSpaceOnUse">
<stop stop-color="#CEB3EF" stop-opacity="0.7"/>
<stop offset="0.26" stop-color="#AA8DDC" stop-opacity="0.53"/>
<stop offset="0.5" stop-color="#8E71CE" stop-opacity="0.41"/>
<stop offset="0.69" stop-color="#7D5FC5" stop-opacity="0.33"/>
<stop offset="0.82" stop-color="#7759C2" stop-opacity="0.3"/>
<stop offset="1" stop-color="#5829CB" stop-opacity="0.4"/>
</linearGradient>
</svg>
